vsetenv PMIX_SERVER_TMPDIR failed
vsetenv PMIX_SERVER_TMPDIR failed
vsetenv PMIX_SERVER_TMPDIR failed
vsetenv PMIX_SERVER_TMPDIR failed
vsetenv PMIX_SERVER_TMPDIR failed
vsetenv PMIX_SERVER_TMPDIR failed
vsetenv PMIX_SERVER_TMPDIR failed
vsetenv PMIX_SERVER_TMPDIR failed
vsetenv PMIX_SERVER_TMPDIR failed
vsetenv PMIX_SERVER_TMPDIR failed
vsetenv PMIX_SERVER_TMPDIR failed
vsetenv PMIX_SERVER_TMPDIR failed
vsetenv PMIX_SERVER_TMPDIR failed
vsetenv PMIX_SERVER_TMPDIR failed
vsetenv PMIX_SERVER_TMPDIR failed
vsetenv PMIX_SERVER_TMPDIR failed
vsetenv PMIX_SERVER_TMPDIR failed
vsetenv PMIX_SERVER_TMPDIR failed
vsetenv PMIX_SERVER_TMPDIR failed
vsetenv PMIX_SERVER_TMPDIR failed
vsetenv PMIX_SERVER_TMPDIR failed
vsetenv PMIX_SERVER_TMPDIR failed
vsetenv PMIX_SERVER_TMPDIR failed
vsetenv PMIX_SERVER_TMPDIR failed
vsetenv PMIX_SERVER_TMPDIR failed
vsetenv PMIX_SERVER_TMPDIR failed
vsetenv PMIX_SERVER_TMPDIR failed
vsetenv PMIX_SERVER_TMPDIR failed
vsetenv PMIX_SERVER_TMPDIR failed
vsetenv PMIX_SERVER_TMPDIR failed
[srvcnthpc603:21660:0:21660] Caught signal 11 (Segmentation fault: address not mapped to object at address 0x7ffd750bdff8)
==== backtrace ====
    0  /lib64/libucs.so.0(+0x178c0) [0x7f59de8908c0]
    1  /lib64/libucs.so.0(+0x17a72) [0x7f59de890a72]
    2  ./sort() [0x401a99]
    3  ./sort() [0x401b2d]
    4  ./sort() [0x401b47]
    5  ./sort() [0x401b47]
    6  ./sort() [0x401b47]
    7  ./sort() [0x401b47]
    8  ./sort() [0x401b47]
    9  ./sort() [0x401b47]
   10  ./sort() [0x401b47]
   11  ./sort() [0x401b47]
   12  ./sort() [0x401b47]
   13  ./sort() [0x401b47]
   14  ./sort() [0x401b47]
   15  ./sort() [0x401b47]
   16  ./sort() [0x401b47]
   17  ./sort() [0x401b47]
   18  ./sort() [0x401b47]
   19  ./sort() [0x401b47]
   20  ./sort() [0x401b47]
   21  ./sort() [0x401b47]
   22  ./sort() [0x401b47]
   23  ./sort() [0x401b47]
   24  ./sort() [0x401b47]
   25  ./sort() [0x401b47]
   26  ./sort() [0x401b47]
   27  ./sort() [0x401b47]
   28  ./sort() [0x401b47]
   29  ./sort() [0x401b47]
   30  ./sort() [0x401b47]
   31  ./sort() [0x401b47]
   32  ./sort() [0x401b47]
   33  ./sort() [0x401b47]
   34  ./sort() [0x401b47]
   35  ./sort() [0x401b47]
   36  ./sort() [0x401b47]
   37  ./sort() [0x401b47]
   38  ./sort() [0x401b47]
   39  ./sort() [0x401b47]
   40  ./sort() [0x401b47]
   41  ./sort() [0x401b47]
   42  ./sort() [0x401b47]
   43  ./sort() [0x401b47]
   44  ./sort() [0x401b47]
   45  ./sort() [0x401b47]
   46  ./sort() [0x401b47]
   47  ./sort() [0x401b47]
   48  ./sort() [0x401b47]
   49  ./sort() [0x401b47]
   50  ./sort() [0x401b47]
   51  ./sort() [0x401b47]
   52  ./sort() [0x401b47]
   53  ./sort() [0x401b47]
   54  ./sort() [0x401b47]
   55  ./sort() [0x401b47]
   56  ./sort() [0x401b47]
   57  ./sort() [0x401b47]
   58  ./sort() [0x401b47]
   59  ./sort() [0x401b47]
   60  ./sort() [0x401b47]
===================
vsetenv PMIX_SERVER_TMPDIR failed
vsetenv PMIX_SERVER_TMPDIR failed
vsetenv PMIX_SERVER_TMPDIR failed
vsetenv PMIX_SERVER_TMPDIR failed
vsetenv PMIX_SERVER_TMPDIR failed
vsetenv PMIX_SERVER_TMPDIR failed
vsetenv PMIX_SERVER_TMPDIR failed
vsetenv PMIX_SERVER_TMPDIR failed
vsetenv PMIX_SERVER_TMPDIR failed
vsetenv PMIX_SERVER_TMPDIR failed
vsetenv PMIX_SERVER_TMPDIR failed
vsetenv PMIX_SERVER_TMPDIR failed
vsetenv PMIX_SERVER_TMPDIR failed
vsetenv PMIX_SERVER_TMPDIR failed
vsetenv PMIX_SERVER_TMPDIR failed
vsetenv PMIX_SERVER_TMPDIR failed
vsetenv PMIX_SERVER_TMPDIR failed
vsetenv PMIX_SERVER_TMPDIR failed
vsetenv PMIX_SERVER_TMPDIR failed
vsetenv PMIX_SERVER_TMPDIR failed
vsetenv PMIX_SERVER_TMPDIR failed
vsetenv PMIX_SERVER_TMPDIR failed
vsetenv PMIX_SERVER_TMPDIR failed
vsetenv PMIX_SERVER_TMPDIR failed
vsetenv PMIX_SERVER_TMPDIR failed
vsetenv PMIX_SERVER_TMPDIR failed
vsetenv PMIX_SERVER_TMPDIR failed
vsetenv PMIX_SERVER_TMPDIR failed
vsetenv PMIX_SERVER_TMPDIR failed
vsetenv PMIX_SERVER_TMPDIR failed
[srvcnthpc603:22465:0:22465] Caught signal 11 (Segmentation fault: address not mapped to object at address 0x7ffeb4984fe8)
==== backtrace ====
    0  /lib64/libucs.so.0(+0x178c0) [0x7f3a32ad88c0]
    1  /lib64/libucs.so.0(+0x17a72) [0x7f3a32ad8a72]
    2  ./sort() [0x4019ec]
    3  ./sort() [0x401a9e]
    4  ./sort() [0x401b2d]
    5  ./sort() [0x401b47]
    6  ./sort() [0x401b47]
    7  ./sort() [0x401b47]
    8  ./sort() [0x401b47]
    9  ./sort() [0x401b47]
   10  ./sort() [0x401b47]
   11  ./sort() [0x401b47]
   12  ./sort() [0x401b47]
   13  ./sort() [0x401b47]
   14  ./sort() [0x401b47]
   15  ./sort() [0x401b47]
   16  ./sort() [0x401b47]
   17  ./sort() [0x401b47]
   18  ./sort() [0x401b47]
   19  ./sort() [0x401b47]
   20  ./sort() [0x401b47]
   21  ./sort() [0x401b47]
   22  ./sort() [0x401b47]
   23  ./sort() [0x401b47]
   24  ./sort() [0x401b47]
   25  ./sort() [0x401b47]
   26  ./sort() [0x401b47]
   27  ./sort() [0x401b47]
   28  ./sort() [0x401b47]
   29  ./sort() [0x401b47]
   30  ./sort() [0x401b47]
   31  ./sort() [0x401b47]
   32  ./sort() [0x401b47]
   33  ./sort() [0x401b47]
   34  ./sort() [0x401b47]
   35  ./sort() [0x401b47]
   36  ./sort() [0x401b47]
   37  ./sort() [0x401b47]
   38  ./sort() [0x401b47]
   39  ./sort() [0x401b47]
   40  ./sort() [0x401b47]
   41  ./sort() [0x401b47]
   42  ./sort() [0x401b47]
   43  ./sort() [0x401b47]
   44  ./sort() [0x401b47]
   45  ./sort() [0x401b47]
   46  ./sort() [0x401b47]
   47  ./sort() [0x401b47]
   48  ./sort() [0x401b47]
   49  ./sort() [0x401b47]
   50  ./sort() [0x401b47]
   51  ./sort() [0x401b47]
   52  ./sort() [0x401b47]
   53  ./sort() [0x401b47]
   54  ./sort() [0x401b47]
   55  ./sort() [0x401b47]
   56  ./sort() [0x401b47]
   57  ./sort() [0x401b47]
   58  ./sort() [0x401b47]
   59  ./sort() [0x401b47]
   60  ./sort() [0x401b47]
===================
vsetenv PMIX_SERVER_TMPDIR failed
vsetenv PMIX_SERVER_TMPDIR failed
vsetenv PMIX_SERVER_TMPDIR failed
vsetenv PMIX_SERVER_TMPDIR failed
vsetenv PMIX_SERVER_TMPDIR failed
vsetenv PMIX_SERVER_TMPDIR failed
vsetenv PMIX_SERVER_TMPDIR failed
vsetenv PMIX_SERVER_TMPDIR failed
vsetenv PMIX_SERVER_TMPDIR failed
vsetenv PMIX_SERVER_TMPDIR failed
vsetenv PMIX_SERVER_TMPDIR failed
vsetenv PMIX_SERVER_TMPDIR failed
vsetenv PMIX_SERVER_TMPDIR failed
vsetenv PMIX_SERVER_TMPDIR failed
vsetenv PMIX_SERVER_TMPDIR failed
vsetenv PMIX_SERVER_TMPDIR failed
vsetenv PMIX_SERVER_TMPDIR failed
vsetenv PMIX_SERVER_TMPDIR failed
vsetenv PMIX_SERVER_TMPDIR failed
vsetenv PMIX_SERVER_TMPDIR failed
vsetenv PMIX_SERVER_TMPDIR failed
vsetenv PMIX_SERVER_TMPDIR failed
vsetenv PMIX_SERVER_TMPDIR failed
vsetenv PMIX_SERVER_TMPDIR failed
vsetenv PMIX_SERVER_TMPDIR failed
vsetenv PMIX_SERVER_TMPDIR failed
vsetenv PMIX_SERVER_TMPDIR failed
vsetenv PMIX_SERVER_TMPDIR failed
vsetenv PMIX_SERVER_TMPDIR failed
vsetenv PMIX_SERVER_TMPDIR failed
[srvcnthpc603:22756:0:22756] Caught signal 11 (Segmentation fault: address not mapped to object at address 0x7fff3f98bfe8)
==== backtrace ====
    0  /lib64/libucs.so.0(+0x178c0) [0x7f9d7e8908c0]
    1  /lib64/libucs.so.0(+0x17a72) [0x7f9d7e890a72]
    2  ./sort() [0x4019ec]
    3  ./sort() [0x401a9e]
    4  ./sort() [0x401b2d]
    5  ./sort() [0x401b47]
    6  ./sort() [0x401b47]
    7  ./sort() [0x401b47]
    8  ./sort() [0x401b47]
    9  ./sort() [0x401b47]
   10  ./sort() [0x401b47]
   11  ./sort() [0x401b47]
   12  ./sort() [0x401b47]
   13  ./sort() [0x401b47]
   14  ./sort() [0x401b47]
   15  ./sort() [0x401b47]
   16  ./sort() [0x401b47]
   17  ./sort() [0x401b47]
   18  ./sort() [0x401b47]
   19  ./sort() [0x401b47]
   20  ./sort() [0x401b47]
   21  ./sort() [0x401b47]
   22  ./sort() [0x401b47]
   23  ./sort() [0x401b47]
   24  ./sort() [0x401b47]
   25  ./sort() [0x401b47]
   26  ./sort() [0x401b47]
   27  ./sort() [0x401b47]
   28  ./sort() [0x401b47]
   29  ./sort() [0x401b47]
   30  ./sort() [0x401b47]
   31  ./sort() [0x401b47]
   32  ./sort() [0x401b47]
   33  ./sort() [0x401b47]
   34  ./sort() [0x401b47]
   35  ./sort() [0x401b47]
   36  ./sort() [0x401b47]
   37  ./sort() [0x401b47]
   38  ./sort() [0x401b47]
   39  ./sort() [0x401b47]
   40  ./sort() [0x401b47]
   41  ./sort() [0x401b47]
   42  ./sort() [0x401b47]
   43  ./sort() [0x401b47]
   44  ./sort() [0x401b47]
   45  ./sort() [0x401b47]
   46  ./sort() [0x401b47]
   47  ./sort() [0x401b47]
   48  ./sort() [0x401b47]
   49  ./sort() [0x401b47]
   50  ./sort() [0x401b47]
   51  ./sort() [0x401b47]
   52  ./sort() [0x401b47]
   53  ./sort() [0x401b47]
   54  ./sort() [0x401b47]
   55  ./sort() [0x401b47]
   56  ./sort() [0x401b47]
   57  ./sort() [0x401b47]
   58  ./sort() [0x401b47]
   59  ./sort() [0x401b47]
   60  ./sort() [0x401b47]
===================
vsetenv PMIX_SERVER_TMPDIR failed
vsetenv PMIX_SERVER_TMPDIR failed
vsetenv PMIX_SERVER_TMPDIR failed
vsetenv PMIX_SERVER_TMPDIR failed
vsetenv PMIX_SERVER_TMPDIR failed
vsetenv PMIX_SERVER_TMPDIR failed
vsetenv PMIX_SERVER_TMPDIR failed
vsetenv PMIX_SERVER_TMPDIR failed
vsetenv PMIX_SERVER_TMPDIR failed
vsetenv PMIX_SERVER_TMPDIR failed
vsetenv PMIX_SERVER_TMPDIR failed
vsetenv PMIX_SERVER_TMPDIR failed
vsetenv PMIX_SERVER_TMPDIR failed
vsetenv PMIX_SERVER_TMPDIR failed
vsetenv PMIX_SERVER_TMPDIR failed
vsetenv PMIX_SERVER_TMPDIR failed
vsetenv PMIX_SERVER_TMPDIR failed
vsetenv PMIX_SERVER_TMPDIR failed
vsetenv PMIX_SERVER_TMPDIR failed
vsetenv PMIX_SERVER_TMPDIR failed
vsetenv PMIX_SERVER_TMPDIR failed
vsetenv PMIX_SERVER_TMPDIR failed
vsetenv PMIX_SERVER_TMPDIR failed
vsetenv PMIX_SERVER_TMPDIR failed
vsetenv PMIX_SERVER_TMPDIR failed
vsetenv PMIX_SERVER_TMPDIR failed
vsetenv PMIX_SERVER_TMPDIR failed
vsetenv PMIX_SERVER_TMPDIR failed
vsetenv PMIX_SERVER_TMPDIR failed
vsetenv PMIX_SERVER_TMPDIR failed
[srvcnthpc603:23041:0:23041] Caught signal 11 (Segmentation fault: address not mapped to object at address 0x7ffc9a8a5ff8)
==== backtrace ====
    0  /lib64/libucs.so.0(+0x178c0) [0x7fc3e33788c0]
    1  /lib64/libucs.so.0(+0x17a72) [0x7fc3e3378a72]
    2  ./sort() [0x401a99]
    3  ./sort() [0x401b2d]
    4  ./sort() [0x401b47]
    5  ./sort() [0x401b47]
    6  ./sort() [0x401b47]
    7  ./sort() [0x401b47]
    8  ./sort() [0x401b47]
    9  ./sort() [0x401b47]
   10  ./sort() [0x401b47]
   11  ./sort() [0x401b47]
   12  ./sort() [0x401b47]
   13  ./sort() [0x401b47]
   14  ./sort() [0x401b47]
   15  ./sort() [0x401b47]
   16  ./sort() [0x401b47]
   17  ./sort() [0x401b47]
   18  ./sort() [0x401b47]
   19  ./sort() [0x401b47]
   20  ./sort() [0x401b47]
   21  ./sort() [0x401b47]
   22  ./sort() [0x401b47]
   23  ./sort() [0x401b47]
   24  ./sort() [0x401b47]
   25  ./sort() [0x401b47]
   26  ./sort() [0x401b47]
   27  ./sort() [0x401b47]
   28  ./sort() [0x401b47]
   29  ./sort() [0x401b47]
   30  ./sort() [0x401b47]
   31  ./sort() [0x401b47]
   32  ./sort() [0x401b47]
   33  ./sort() [0x401b47]
   34  ./sort() [0x401b47]
   35  ./sort() [0x401b47]
   36  ./sort() [0x401b47]
   37  ./sort() [0x401b47]
   38  ./sort() [0x401b47]
   39  ./sort() [0x401b47]
   40  ./sort() [0x401b47]
   41  ./sort() [0x401b47]
   42  ./sort() [0x401b47]
   43  ./sort() [0x401b47]
   44  ./sort() [0x401b47]
   45  ./sort() [0x401b47]
   46  ./sort() [0x401b47]
   47  ./sort() [0x401b47]
   48  ./sort() [0x401b47]
   49  ./sort() [0x401b47]
   50  ./sort() [0x401b47]
   51  ./sort() [0x401b47]
   52  ./sort() [0x401b47]
   53  ./sort() [0x401b47]
   54  ./sort() [0x401b47]
   55  ./sort() [0x401b47]
   56  ./sort() [0x401b47]
   57  ./sort() [0x401b47]
   58  ./sort() [0x401b47]
   59  ./sort() [0x401b47]
   60  ./sort() [0x401b47]
===================
vsetenv PMIX_SERVER_TMPDIR failed
vsetenv PMIX_SERVER_TMPDIR failed
vsetenv PMIX_SERVER_TMPDIR failed
vsetenv PMIX_SERVER_TMPDIR failed
vsetenv PMIX_SERVER_TMPDIR failed
vsetenv PMIX_SERVER_TMPDIR failed
vsetenv PMIX_SERVER_TMPDIR failed
vsetenv PMIX_SERVER_TMPDIR failed
vsetenv PMIX_SERVER_TMPDIR failed
vsetenv PMIX_SERVER_TMPDIR failed
vsetenv PMIX_SERVER_TMPDIR failed
vsetenv PMIX_SERVER_TMPDIR failed
vsetenv PMIX_SERVER_TMPDIR failed
vsetenv PMIX_SERVER_TMPDIR failed
vsetenv PMIX_SERVER_TMPDIR failed
vsetenv PMIX_SERVER_TMPDIR failed
vsetenv PMIX_SERVER_TMPDIR failed
vsetenv PMIX_SERVER_TMPDIR failed
vsetenv PMIX_SERVER_TMPDIR failed
vsetenv PMIX_SERVER_TMPDIR failed
vsetenv PMIX_SERVER_TMPDIR failed
vsetenv PMIX_SERVER_TMPDIR failed
vsetenv PMIX_SERVER_TMPDIR failed
vsetenv PMIX_SERVER_TMPDIR failed
vsetenv PMIX_SERVER_TMPDIR failed
vsetenv PMIX_SERVER_TMPDIR failed
vsetenv PMIX_SERVER_TMPDIR failed
vsetenv PMIX_SERVER_TMPDIR failed
vsetenv PMIX_SERVER_TMPDIR failed
vsetenv PMIX_SERVER_TMPDIR failed
[srvcnthpc603:23878:0:23878] Caught signal 11 (Segmentation fault: address not mapped to object at address 0x7ffc56431ff8)
==== backtrace ====
    0  /lib64/libucs.so.0(+0x178c0) [0x7f264ef188c0]
    1  /lib64/libucs.so.0(+0x17a72) [0x7f264ef18a72]
    2  ./sort() [0x4019ec]
    3  ./sort() [0x401a9e]
    4  ./sort() [0x401b2d]
    5  ./sort() [0x401b47]
    6  ./sort() [0x401b47]
    7  ./sort() [0x401b47]
    8  ./sort() [0x401b47]
    9  ./sort() [0x401b47]
   10  ./sort() [0x401b47]
   11  ./sort() [0x401b47]
   12  ./sort() [0x401b47]
   13  ./sort() [0x401b47]
   14  ./sort() [0x401b47]
   15  ./sort() [0x401b47]
   16  ./sort() [0x401b47]
   17  ./sort() [0x401b47]
   18  ./sort() [0x401b47]
   19  ./sort() [0x401b47]
   20  ./sort() [0x401b47]
   21  ./sort() [0x401b47]
   22  ./sort() [0x401b47]
   23  ./sort() [0x401b47]
   24  ./sort() [0x401b47]
   25  ./sort() [0x401b47]
   26  ./sort() [0x401b47]
   27  ./sort() [0x401b47]
   28  ./sort() [0x401b47]
   29  ./sort() [0x401b47]
   30  ./sort() [0x401b47]
   31  ./sort() [0x401b47]
   32  ./sort() [0x401b47]
   33  ./sort() [0x401b47]
   34  ./sort() [0x401b47]
   35  ./sort() [0x401b47]
   36  ./sort() [0x401b47]
   37  ./sort() [0x401b47]
   38  ./sort() [0x401b47]
   39  ./sort() [0x401b47]
   40  ./sort() [0x401b47]
   41  ./sort() [0x401b47]
   42  ./sort() [0x401b47]
   43  ./sort() [0x401b47]
   44  ./sort() [0x401b47]
   45  ./sort() [0x401b47]
   46  ./sort() [0x401b47]
   47  ./sort() [0x401b47]
   48  ./sort() [0x401b47]
   49  ./sort() [0x401b47]
   50  ./sort() [0x401b47]
   51  ./sort() [0x401b47]
   52  ./sort() [0x401b47]
   53  ./sort() [0x401b47]
   54  ./sort() [0x401b47]
   55  ./sort() [0x401b47]
   56  ./sort() [0x401b47]
   57  ./sort() [0x401b47]
   58  ./sort() [0x401b47]
   59  ./sort() [0x401b47]
   60  ./sort() [0x401b47]
===================
vsetenv PMIX_SERVER_TMPDIR failed
vsetenv PMIX_SERVER_TMPDIR failed
vsetenv PMIX_SERVER_TMPDIR failed
vsetenv PMIX_SERVER_TMPDIR failed
vsetenv PMIX_SERVER_TMPDIR failed
vsetenv PMIX_SERVER_TMPDIR failed
vsetenv PMIX_SERVER_TMPDIR failed
vsetenv PMIX_SERVER_TMPDIR failed
vsetenv PMIX_SERVER_TMPDIR failed
vsetenv PMIX_SERVER_TMPDIR failed
vsetenv PMIX_SERVER_TMPDIR failed
vsetenv PMIX_SERVER_TMPDIR failed
vsetenv PMIX_SERVER_TMPDIR failed
vsetenv PMIX_SERVER_TMPDIR failed
vsetenv PMIX_SERVER_TMPDIR failed
vsetenv PMIX_SERVER_TMPDIR failed
vsetenv PMIX_SERVER_TMPDIR failed
vsetenv PMIX_SERVER_TMPDIR failed
vsetenv PMIX_SERVER_TMPDIR failed
vsetenv PMIX_SERVER_TMPDIR failed
vsetenv PMIX_SERVER_TMPDIR failed
vsetenv PMIX_SERVER_TMPDIR failed
vsetenv PMIX_SERVER_TMPDIR failed
vsetenv PMIX_SERVER_TMPDIR failed
vsetenv PMIX_SERVER_TMPDIR failed
vsetenv PMIX_SERVER_TMPDIR failed
vsetenv PMIX_SERVER_TMPDIR failed
vsetenv PMIX_SERVER_TMPDIR failed
vsetenv PMIX_SERVER_TMPDIR failed
vsetenv PMIX_SERVER_TMPDIR failed
[srvcnthpc603:24165:0:24165] Caught signal 11 (Segmentation fault: address not mapped to object at address 0x7ffc51064ff8)
==== backtrace ====
    0  /lib64/libucs.so.0(+0x178c0) [0x7fa2731708c0]
    1  /lib64/libucs.so.0(+0x17a72) [0x7fa273170a72]
    2  ./sort() [0x4019ec]
    3  ./sort() [0x401a9e]
    4  ./sort() [0x401b2d]
    5  ./sort() [0x401b47]
    6  ./sort() [0x401b47]
    7  ./sort() [0x401b47]
    8  ./sort() [0x401b47]
    9  ./sort() [0x401b47]
   10  ./sort() [0x401b47]
   11  ./sort() [0x401b47]
   12  ./sort() [0x401b47]
   13  ./sort() [0x401b47]
   14  ./sort() [0x401b47]
   15  ./sort() [0x401b47]
   16  ./sort() [0x401b47]
   17  ./sort() [0x401b47]
   18  ./sort() [0x401b47]
   19  ./sort() [0x401b47]
   20  ./sort() [0x401b47]
   21  ./sort() [0x401b47]
   22  ./sort() [0x401b47]
   23  ./sort() [0x401b47]
   24  ./sort() [0x401b47]
   25  ./sort() [0x401b47]
   26  ./sort() [0x401b47]
   27  ./sort() [0x401b47]
   28  ./sort() [0x401b47]
   29  ./sort() [0x401b47]
   30  ./sort() [0x401b47]
   31  ./sort() [0x401b47]
   32  ./sort() [0x401b47]
   33  ./sort() [0x401b47]
   34  ./sort() [0x401b47]
   35  ./sort() [0x401b47]
   36  ./sort() [0x401b47]
   37  ./sort() [0x401b47]
   38  ./sort() [0x401b47]
   39  ./sort() [0x401b47]
   40  ./sort() [0x401b47]
   41  ./sort() [0x401b47]
   42  ./sort() [0x401b47]
   43  ./sort() [0x401b47]
   44  ./sort() [0x401b47]
   45  ./sort() [0x401b47]
   46  ./sort() [0x401b47]
   47  ./sort() [0x401b47]
   48  ./sort() [0x401b47]
   49  ./sort() [0x401b47]
   50  ./sort() [0x401b47]
   51  ./sort() [0x401b47]
   52  ./sort() [0x401b47]
   53  ./sort() [0x401b47]
   54  ./sort() [0x401b47]
   55  ./sort() [0x401b47]
   56  ./sort() [0x401b47]
   57  ./sort() [0x401b47]
   58  ./sort() [0x401b47]
   59  ./sort() [0x401b47]
   60  ./sort() [0x401b47]
===================
vsetenv PMIX_SERVER_TMPDIR failed
vsetenv PMIX_SERVER_TMPDIR failed
vsetenv PMIX_SERVER_TMPDIR failed
vsetenv PMIX_SERVER_TMPDIR failed
vsetenv PMIX_SERVER_TMPDIR failed
vsetenv PMIX_SERVER_TMPDIR failed
vsetenv PMIX_SERVER_TMPDIR failed
vsetenv PMIX_SERVER_TMPDIR failed
vsetenv PMIX_SERVER_TMPDIR failed
vsetenv PMIX_SERVER_TMPDIR failed
vsetenv PMIX_SERVER_TMPDIR failed
vsetenv PMIX_SERVER_TMPDIR failed
vsetenv PMIX_SERVER_TMPDIR failed
vsetenv PMIX_SERVER_TMPDIR failed
vsetenv PMIX_SERVER_TMPDIR failed
vsetenv PMIX_SERVER_TMPDIR failed
vsetenv PMIX_SERVER_TMPDIR failed
vsetenv PMIX_SERVER_TMPDIR failed
vsetenv PMIX_SERVER_TMPDIR failed
vsetenv PMIX_SERVER_TMPDIR failed
vsetenv PMIX_SERVER_TMPDIR failed
vsetenv PMIX_SERVER_TMPDIR failed
vsetenv PMIX_SERVER_TMPDIR failed
vsetenv PMIX_SERVER_TMPDIR failed
vsetenv PMIX_SERVER_TMPDIR failed
vsetenv PMIX_SERVER_TMPDIR failed
vsetenv PMIX_SERVER_TMPDIR failed
vsetenv PMIX_SERVER_TMPDIR failed
vsetenv PMIX_SERVER_TMPDIR failed
vsetenv PMIX_SERVER_TMPDIR failed
slurmstepd: error: *** JOB 133729 ON srvcnthpc601 CANCELLED AT 2019-05-28T21:24:08 DUE TO TIME LIMIT ***
