#ROMP8
num_nodes,num_cores,num_threads,n,time
1,8,4,100,0.000137
1,8,4,1000,0.000276
1,8,4,10000,0.006917
1,8,4,100000,0.924119
1,8,4,1000000,80.603501
1,8,4,100,0.000200
1,8,4,1000,0.000416
1,8,4,10000,0.006165
1,8,4,100000,1.014930
1,8,4,1000000,39.666060
1,8,4,100,0.000153
1,8,4,1000,0.000359
1,8,4,10000,0.005762
1,8,4,100000,0.426304
1,8,4,1000000,83.806855
1,8,4,100,0.000155
1,8,4,1000,0.000431
1,8,4,10000,0.005964
1,8,4,100000,0.959200
1,8,4,1000000,76.358468
1,8,4,100,0.000155
1,8,4,1000,0.000277
1,8,4,10000,0.007904
1,8,4,100000,0.861294
1,8,4,1000000,103.829282
1,8,4,100,0.000163
1,8,4,1000,0.000268
1,8,4,10000,0.009118
1,8,4,100000,0.310559
1,8,4,1000000,66.517439
1,8,4,100,0.000150
1,8,4,1000,0.000305
1,8,4,10000,0.006723
1,8,4,100000,0.403065
1,8,4,1000000,66.861970
1,8,4,100,0.000175
1,8,4,1000,0.000316
1,8,4,10000,0.010152
1,8,4,100000,0.417900
1,8,4,1000000,36.418361
1,8,4,100,0.000144
1,8,4,1000,0.000275
1,8,4,10000,0.011550
1,8,4,100000,1.118400
1,8,4,1000000,87.758017
1,8,4,100,0.000149
1,8,4,1000,0.000324
1,8,4,10000,0.008680
1,8,4,100000,0.299544
1,8,4,1000000,55.202856
