#ROMP4
num_nodes,num_cores,num_threads,n,time
1,4,4,100,0.000152
1,4,4,1000,0.000349
1,4,4,10000,0.009100
1,4,4,100000,0.712250
1,4,4,1000000,68.676285
1,4,4,100,0.000190
1,4,4,1000,0.000316
1,4,4,10000,0.006570
1,4,4,100000,0.806565
1,4,4,1000000,30.358084
1,4,4,100,0.000150
1,4,4,1000,0.000341
1,4,4,10000,0.007743
1,4,4,100000,0.551703
1,4,4,1000000,47.539197
1,4,4,100,0.000165
1,4,4,1000,0.000292
1,4,4,10000,0.010918
1,4,4,100000,1.095315
1,4,4,1000000,96.811774
1,4,4,100,0.000192
1,4,4,1000,0.000293
1,4,4,10000,0.011984
1,4,4,100000,0.771505
1,4,4,1000000,90.714655
1,4,4,100,0.000174
1,4,4,1000,0.000335
1,4,4,10000,0.005614
1,4,4,100000,0.868254
1,4,4,100,0.000139
1,4,4,1000,0.000281
1,4,4,10000,0.007357
1,4,4,100000,1.076693
1,4,4,1000000,63.840669
1,4,4,100,0.000150
1,4,4,1000,0.000314
1,4,4,10000,0.011514
1,4,4,100000,0.531691
1,4,4,1000000,52.853903
1,4,4,100,0.000143
1,4,4,1000,0.000551
1,4,4,10000,0.006232
1,4,4,100000,0.349147
1,4,4,1000000,104.312344
1,4,4,100,0.000144
1,4,4,1000,0.000424
1,4,4,10000,0.006814
1,4,4,100000,0.343043
1,4,4,1000000,74.446622
1,4,4,100,0.000154
1,4,4,1000,0.000279
1,4,4,10000,0.008337
1,4,4,100000,0.573394
1,4,4,100,0.000162
1,4,4,1000,0.000336
1,4,4,10000,0.005559
1,4,4,100000,0.594872
1,4,4,1000000,22.022069
