#ROMP2
num_nodes,num_cores,num_threads,n,time
1,2,8,100,0.000250
1,2,8,1000,0.000282
1,2,8,10000,0.002496
1,2,8,100000,0.129159
1,2,8,1000000,6.432045
1,2,8,100,0.000295
1,2,8,1000,0.000416
1,2,8,10000,0.002275
1,2,8,100000,0.122804
1,2,8,1000000,15.030587
1,2,8,100,0.000225
1,2,8,1000,0.000299
1,2,8,10000,0.002720
1,2,8,100000,0.085411
1,2,8,1000000,9.056315
1,2,8,100,0.000335
1,2,8,1000,0.000281
1,2,8,10000,0.002150
1,2,8,100000,0.135120
1,2,8,1000000,15.267018
1,2,8,100,0.000604
1,2,8,1000,0.000317
1,2,8,10000,0.001628
1,2,8,100000,0.095602
1,2,8,1000000,15.883197
1,2,8,100,0.000211
1,2,8,1000,0.000295
1,2,8,10000,0.003535
1,2,8,100000,0.142873
1,2,8,1000000,18.983001
1,2,8,100,0.000259
1,2,8,1000,0.000288
1,2,8,10000,0.002229
1,2,8,100000,0.197237
1,2,8,1000000,17.001001
1,2,8,100,0.000231
1,2,8,1000,0.000308
1,2,8,10000,0.001780
1,2,8,100000,0.089331
1,2,8,1000000,10.244737
1,2,8,100,0.000225
1,2,8,1000,0.000327
1,2,8,10000,0.002509
1,2,8,100000,0.152483
1,2,8,1000000,9.504071
1,2,8,100,0.000238
1,2,8,1000,0.000292
1,2,8,10000,0.002387
1,2,8,100000,0.127206
1,2,8,1000000,6.076115
