#OMP8
num_nodes,num_cores,num_threads,n,time
1,8,2,100,0.000188
1,8,2,1000,0.000243
1,8,2,10000,0.001571
1,8,2,100000,0.019903
1,8,2,1000000,0.231868
1,8,2,100,0.000040
1,8,2,1000,0.000217
1,8,2,10000,0.001496
1,8,2,100000,0.019322
1,8,2,1000000,0.226631
1,8,2,100,0.000037
1,8,2,1000,0.000256
1,8,2,10000,0.001579
1,8,2,100000,0.018624
1,8,2,1000000,0.217187
1,8,2,100,0.000038
1,8,2,1000,0.000280
1,8,2,10000,0.001524
1,8,2,100000,0.018381
1,8,2,1000000,0.212629
1,8,2,100,0.000039
1,8,2,1000,0.000251
1,8,2,10000,0.001527
1,8,2,100000,0.018504
1,8,2,1000000,0.224010
1,8,2,100,0.000040
1,8,2,1000,0.000352
1,8,2,10000,0.001655
1,8,2,100000,0.019554
1,8,2,1000000,0.226891
1,8,2,100,0.000045
1,8,2,1000,0.000237
1,8,2,10000,0.001627
1,8,2,100000,0.019384
1,8,2,1000000,0.221038
1,8,2,100,0.000051
1,8,2,1000,0.000230
1,8,2,10000,0.001898
1,8,2,100000,0.019633
1,8,2,1000000,0.220506
1,8,2,100,0.000129
1,8,2,1000,0.000248
1,8,2,10000,0.001661
1,8,2,100000,0.018703
1,8,2,1000000,0.206294
1,8,2,100,0.000044
1,8,2,1000,0.000237
1,8,2,10000,0.001690
1,8,2,100000,0.018932
1,8,2,1000000,0.219983
1,8,4,100,0.000055
1,8,4,1000,0.000278
1,8,4,10000,0.001036
1,8,4,100000,0.011820
1,8,4,1000000,0.119240
1,8,4,100,0.000057
1,8,4,1000,0.000252
1,8,4,10000,0.001094
1,8,4,100000,0.011256
1,8,4,1000000,0.118985
1,8,4,100,0.000058
1,8,4,1000,0.000271
1,8,4,10000,0.001045
1,8,4,100000,0.011019
1,8,4,1000000,0.133551
1,8,4,100,0.000080
1,8,4,1000,0.000292
1,8,4,10000,0.000947
1,8,4,100000,0.010384
1,8,4,1000000,0.122158
1,8,4,100,0.000053
1,8,4,1000,0.000240
1,8,4,10000,0.001086
1,8,4,100000,0.010338
1,8,4,1000000,0.124737
1,8,4,100,0.000065
1,8,4,1000,0.000265
1,8,4,10000,0.001058
1,8,4,100000,0.010726
1,8,4,1000000,0.126282
1,8,4,100,0.000054
1,8,4,1000,0.000243
1,8,4,10000,0.001183
1,8,4,100000,0.010459
1,8,4,1000000,0.121978
1,8,4,100,0.000065
1,8,4,1000,0.000270
1,8,4,10000,0.001014
1,8,4,100000,0.010764
1,8,4,1000000,0.135669
1,8,4,100,0.000072
1,8,4,1000,0.000269
1,8,4,10000,0.000997
1,8,4,100000,0.011424
1,8,4,1000000,0.128910
1,8,4,100,0.000065
1,8,4,1000,0.000253
1,8,4,10000,0.001069
1,8,4,100000,0.009698
1,8,4,1000000,0.127363
1,8,8,100,0.000096
1,8,8,1000,0.000324
1,8,8,10000,0.001056
1,8,8,100000,0.008606
1,8,8,1000000,0.076217
1,8,8,100,0.000101
1,8,8,1000,0.001614
1,8,8,10000,0.000859
1,8,8,100000,0.009370
1,8,8,1000000,0.084940
1,8,8,100,0.000095
1,8,8,1000,0.000302
1,8,8,10000,0.001891
1,8,8,100000,0.006634
1,8,8,1000000,0.091424
1,8,8,100,0.000089
1,8,8,1000,0.000284
1,8,8,10000,0.000962
1,8,8,100000,0.006915
1,8,8,1000000,0.120048
1,8,8,100,0.000092
1,8,8,1000,0.000276
1,8,8,10000,0.001138
1,8,8,100000,0.007217
1,8,8,1000000,0.083563
1,8,8,100,0.000083
1,8,8,1000,0.000328
1,8,8,10000,0.000836
1,8,8,100000,0.006921
1,8,8,1000000,0.083266
1,8,8,100,0.000096
1,8,8,1000,0.000299
1,8,8,10000,0.000966
1,8,8,100000,0.007001
1,8,8,1000000,0.079529
1,8,8,100,0.000097
1,8,8,1000,0.000298
1,8,8,10000,0.001184
1,8,8,100000,0.007106
1,8,8,1000000,0.078086
1,8,8,100,0.000086
1,8,8,1000,0.000288
1,8,8,10000,0.001041
1,8,8,100000,0.010004
1,8,8,1000000,0.083755
1,8,8,100,0.000088
1,8,8,1000,0.000325
1,8,8,10000,0.000854
1,8,8,100000,0.007266
1,8,8,1000000,0.105103
